(footprint ST_TFBGA-320_11x11mm_Layout21x21_P0.5mm (version 20221018) (generator kicad-footprint-generator)
  (layer F.Cu)
  (descr "ST TFBGA-320, 11.0x11.0mm, 320 Ball, 21x21 Layout, 0.5mm Pitch, https://www.st.com/resource/en/datasheet/stm32mp131c.pdf")
  (tags "BGA 320 0.5")
  (attr smd)
  (solder_mask_margin 0.05)
  (solder_paste_margin 0.000001)
  (fp_text reference REF** (at 0 -6.5) (layer F.SilkS)
    (effects (font (size 1 1) (thickness 0.15)))
  )
  (fp_text value ST_TFBGA-320_11x11mm_Layout21x21_P0.5mm (at 0 6.5) (layer F.Fab)
    (effects (font (size 1 1) (thickness 0.15)))
  )
  (fp_line (start 5.5 5.5) (end -5.5 5.5)
    (stroke (width 0.1) (type solid)) (layer F.Fab))
  (fp_line (start -5.5 5.5) (end -5.5 -4.5)
    (stroke (width 0.1) (type solid)) (layer F.Fab))
  (fp_line (start -5.5 -4.5) (end -4.5 -5.5)
    (stroke (width 0.1) (type solid)) (layer F.Fab))
  (fp_line (start -4.5 -5.5) (end 5.5 -5.5)
    (stroke (width 0.1) (type solid)) (layer F.Fab))
  (fp_line (start 5.5 -5.5) (end 5.5 5.5)
    (stroke (width 0.1) (type solid)) (layer F.Fab))
  (fp_line (start -6.5 -6.5) (end -6.5 6.5)
    (stroke (width 0.05) (type solid)) (layer F.CrtYd))
  (fp_line (start -6.5 6.5) (end 6.5 6.5)
    (stroke (width 0.05) (type solid)) (layer F.CrtYd))
  (fp_line (start 6.5 6.5) (end 6.5 -6.5)
    (stroke (width 0.05) (type solid)) (layer F.CrtYd))
  (fp_line (start 6.5 -6.5) (end -6.5 -6.5)
    (stroke (width 0.05) (type solid)) (layer F.CrtYd))
  (fp_line (start -4.61 -5.61) (end 5.61 -5.61)
    (stroke (width 0.12) (type solid)) (layer F.SilkS))
  (fp_line (start 5.61 -5.61) (end 5.61 5.61)
    (stroke (width 0.12) (type solid)) (layer F.SilkS))
  (fp_line (start 5.61 5.61) (end -5.61 5.61)
    (stroke (width 0.12) (type solid)) (layer F.SilkS))
  (fp_line (start -5.61 5.61) (end -5.61 -4.61)
    (stroke (width 0.12) (type solid)) (layer F.SilkS))
  (pad A1 smd circle (at -5 -5) (size 0.23 0.23) (property pad_prop_bga) (layers F.Cu F.Mask F.Paste))
  (pad A2 smd circle (at -4.5 -5) (size 0.23 0.23) (property pad_prop_bga) (layers F.Cu F.Mask F.Paste))
  (pad A3 smd circle (at -4 -5) (size 0.23 0.23) (property pad_prop_bga) (layers F.Cu F.Mask F.Paste))
  (pad A4 smd circle (at -3.5 -5) (size 0.23 0.23) (property pad_prop_bga) (layers F.Cu F.Mask F.Paste))
  (pad A6 smd circle (at -2.5 -5) (size 0.23 0.23) (property pad_prop_bga) (layers F.Cu F.Mask F.Paste))
  (pad A7 smd circle (at -2 -5) (size 0.23 0.23) (property pad_prop_bga) (layers F.Cu F.Mask F.Paste))
  (pad A9 smd circle (at -1 -5) (size 0.23 0.23) (property pad_prop_bga) (layers F.Cu F.Mask F.Paste))
  (pad A10 smd circle (at -0.5 -5) (size 0.23 0.23) (property pad_prop_bga) (layers F.Cu F.Mask F.Paste))
  (pad A12 smd circle (at 0.5 -5) (size 0.23 0.23) (property pad_prop_bga) (layers F.Cu F.Mask F.Paste))
  (pad A13 smd circle (at 1 -5) (size 0.23 0.23) (property pad_prop_bga) (layers F.Cu F.Mask F.Paste))
  (pad A15 smd circle (at 2 -5) (size 0.23 0.23) (property pad_prop_bga) (layers F.Cu F.Mask F.Paste))
  (pad A16 smd circle (at 2.5 -5) (size 0.23 0.23) (property pad_prop_bga) (layers F.Cu F.Mask F.Paste))
  (pad A18 smd circle (at 3.5 -5) (size 0.23 0.23) (property pad_prop_bga) (layers F.Cu F.Mask F.Paste))
  (pad A19 smd circle (at 4 -5) (size 0.23 0.23) (property pad_prop_bga) (layers F.Cu F.Mask F.Paste))
  (pad A20 smd circle (at 4.5 -5) (size 0.23 0.23) (property pad_prop_bga) (layers F.Cu F.Mask F.Paste))
  (pad A21 smd circle (at 5 -5) (size 0.23 0.23) (property pad_prop_bga) (layers F.Cu F.Mask F.Paste))
  (pad B1 smd circle (at -5 -4.5) (size 0.23 0.23) (property pad_prop_bga) (layers F.Cu F.Mask F.Paste))
  (pad B2 smd circle (at -4.5 -4.5) (size 0.23 0.23) (property pad_prop_bga) (layers F.Cu F.Mask F.Paste))
  (pad B3 smd circle (at -4 -4.5) (size 0.23 0.23) (property pad_prop_bga) (layers F.Cu F.Mask F.Paste))
  (pad B4 smd circle (at -3.5 -4.5) (size 0.23 0.23) (property pad_prop_bga) (layers F.Cu F.Mask F.Paste))
  (pad B5 smd circle (at -3 -4.5) (size 0.23 0.23) (property pad_prop_bga) (layers F.Cu F.Mask F.Paste))
  (pad B6 smd circle (at -2.5 -4.5) (size 0.23 0.23) (property pad_prop_bga) (layers F.Cu F.Mask F.Paste))
  (pad B7 smd circle (at -2 -4.5) (size 0.23 0.23) (property pad_prop_bga) (layers F.Cu F.Mask F.Paste))
  (pad B8 smd circle (at -1.5 -4.5) (size 0.23 0.23) (property pad_prop_bga) (layers F.Cu F.Mask F.Paste))
  (pad B9 smd circle (at -1 -4.5) (size 0.23 0.23) (property pad_prop_bga) (layers F.Cu F.Mask F.Paste))
  (pad B10 smd circle (at -0.5 -4.5) (size 0.23 0.23) (property pad_prop_bga) (layers F.Cu F.Mask F.Paste))
  (pad B11 smd circle (at 0 -4.5) (size 0.23 0.23) (property pad_prop_bga) (layers F.Cu F.Mask F.Paste))
  (pad B12 smd circle (at 0.5 -4.5) (size 0.23 0.23) (property pad_prop_bga) (layers F.Cu F.Mask F.Paste))
  (pad B13 smd circle (at 1 -4.5) (size 0.23 0.23) (property pad_prop_bga) (layers F.Cu F.Mask F.Paste))
  (pad B14 smd circle (at 1.5 -4.5) (size 0.23 0.23) (property pad_prop_bga) (layers F.Cu F.Mask F.Paste))
  (pad B15 smd circle (at 2 -4.5) (size 0.23 0.23) (property pad_prop_bga) (layers F.Cu F.Mask F.Paste))
  (pad B16 smd circle (at 2.5 -4.5) (size 0.23 0.23) (property pad_prop_bga) (layers F.Cu F.Mask F.Paste))
  (pad B17 smd circle (at 3 -4.5) (size 0.23 0.23) (property pad_prop_bga) (layers F.Cu F.Mask F.Paste))
  (pad B18 smd circle (at 3.5 -4.5) (size 0.23 0.23) (property pad_prop_bga) (layers F.Cu F.Mask F.Paste))
  (pad B19 smd circle (at 4 -4.5) (size 0.23 0.23) (property pad_prop_bga) (layers F.Cu F.Mask F.Paste))
  (pad B20 smd circle (at 4.5 -4.5) (size 0.23 0.23) (property pad_prop_bga) (layers F.Cu F.Mask F.Paste))
  (pad B21 smd circle (at 5 -4.5) (size 0.23 0.23) (property pad_prop_bga) (layers F.Cu F.Mask F.Paste))
  (pad C1 smd circle (at -5 -4) (size 0.23 0.23) (property pad_prop_bga) (layers F.Cu F.Mask F.Paste))
  (pad C2 smd circle (at -4.5 -4) (size 0.23 0.23) (property pad_prop_bga) (layers F.Cu F.Mask F.Paste))
  (pad C3 smd circle (at -4 -4) (size 0.23 0.23) (property pad_prop_bga) (layers F.Cu F.Mask F.Paste))
  (pad C4 smd circle (at -3.5 -4) (size 0.23 0.23) (property pad_prop_bga) (layers F.Cu F.Mask F.Paste))
  (pad C5 smd circle (at -3 -4) (size 0.23 0.23) (property pad_prop_bga) (layers F.Cu F.Mask F.Paste))
  (pad C6 smd circle (at -2.5 -4) (size 0.23 0.23) (property pad_prop_bga) (layers F.Cu F.Mask F.Paste))
  (pad C7 smd circle (at -2 -4) (size 0.23 0.23) (property pad_prop_bga) (layers F.Cu F.Mask F.Paste))
  (pad C8 smd circle (at -1.5 -4) (size 0.23 0.23) (property pad_prop_bga) (layers F.Cu F.Mask F.Paste))
  (pad C9 smd circle (at -1 -4) (size 0.23 0.23) (property pad_prop_bga) (layers F.Cu F.Mask F.Paste))
  (pad C10 smd circle (at -0.5 -4) (size 0.23 0.23) (property pad_prop_bga) (layers F.Cu F.Mask F.Paste))
  (pad C11 smd circle (at 0 -4) (size 0.23 0.23) (property pad_prop_bga) (layers F.Cu F.Mask F.Paste))
  (pad C12 smd circle (at 0.5 -4) (size 0.23 0.23) (property pad_prop_bga) (layers F.Cu F.Mask F.Paste))
  (pad C13 smd circle (at 1 -4) (size 0.23 0.23) (property pad_prop_bga) (layers F.Cu F.Mask F.Paste))
  (pad C14 smd circle (at 1.5 -4) (size 0.23 0.23) (property pad_prop_bga) (layers F.Cu F.Mask F.Paste))
  (pad C15 smd circle (at 2 -4) (size 0.23 0.23) (property pad_prop_bga) (layers F.Cu F.Mask F.Paste))
  (pad C16 smd circle (at 2.5 -4) (size 0.23 0.23) (property pad_prop_bga) (layers F.Cu F.Mask F.Paste))
  (pad C17 smd circle (at 3 -4) (size 0.23 0.23) (property pad_prop_bga) (layers F.Cu F.Mask F.Paste))
  (pad C18 smd circle (at 3.5 -4) (size 0.23 0.23) (property pad_prop_bga) (layers F.Cu F.Mask F.Paste))
  (pad C19 smd circle (at 4 -4) (size 0.23 0.23) (property pad_prop_bga) (layers F.Cu F.Mask F.Paste))
  (pad C20 smd circle (at 4.5 -4) (size 0.23 0.23) (property pad_prop_bga) (layers F.Cu F.Mask F.Paste))
  (pad C21 smd circle (at 5 -4) (size 0.23 0.23) (property pad_prop_bga) (layers F.Cu F.Mask F.Paste))
  (pad D1 smd circle (at -5 -3.5) (size 0.23 0.23) (property pad_prop_bga) (layers F.Cu F.Mask F.Paste))
  (pad D2 smd circle (at -4.5 -3.5) (size 0.23 0.23) (property pad_prop_bga) (layers F.Cu F.Mask F.Paste))
  (pad D3 smd circle (at -4 -3.5) (size 0.23 0.23) (property pad_prop_bga) (layers F.Cu F.Mask F.Paste))
  (pad D6 smd circle (at -2.5 -3.5) (size 0.23 0.23) (property pad_prop_bga) (layers F.Cu F.Mask F.Paste))
  (pad D8 smd circle (at -1.5 -3.5) (size 0.23 0.23) (property pad_prop_bga) (layers F.Cu F.Mask F.Paste))
  (pad D11 smd circle (at 0 -3.5) (size 0.23 0.23) (property pad_prop_bga) (layers F.Cu F.Mask F.Paste))
  (pad D14 smd circle (at 1.5 -3.5) (size 0.23 0.23) (property pad_prop_bga) (layers F.Cu F.Mask F.Paste))
  (pad D16 smd circle (at 2.5 -3.5) (size 0.23 0.23) (property pad_prop_bga) (layers F.Cu F.Mask F.Paste))
  (pad D19 smd circle (at 4 -3.5) (size 0.23 0.23) (property pad_prop_bga) (layers F.Cu F.Mask F.Paste))
  (pad D20 smd circle (at 4.5 -3.5) (size 0.23 0.23) (property pad_prop_bga) (layers F.Cu F.Mask F.Paste))
  (pad D21 smd circle (at 5 -3.5) (size 0.23 0.23) (property pad_prop_bga) (layers F.Cu F.Mask F.Paste))
  (pad E2 smd circle (at -4.5 -3) (size 0.23 0.23) (property pad_prop_bga) (layers F.Cu F.Mask F.Paste))
  (pad E3 smd circle (at -4 -3) (size 0.23 0.23) (property pad_prop_bga) (layers F.Cu F.Mask F.Paste))
  (pad E5 smd circle (at -3 -3) (size 0.23 0.23) (property pad_prop_bga) (layers F.Cu F.Mask F.Paste))
  (pad E6 smd circle (at -2.5 -3) (size 0.23 0.23) (property pad_prop_bga) (layers F.Cu F.Mask F.Paste))
  (pad E7 smd circle (at -2 -3) (size 0.23 0.23) (property pad_prop_bga) (layers F.Cu F.Mask F.Paste))
  (pad E8 smd circle (at -1.5 -3) (size 0.23 0.23) (property pad_prop_bga) (layers F.Cu F.Mask F.Paste))
  (pad E9 smd circle (at -1 -3) (size 0.23 0.23) (property pad_prop_bga) (layers F.Cu F.Mask F.Paste))
  (pad E10 smd circle (at -0.5 -3) (size 0.23 0.23) (property pad_prop_bga) (layers F.Cu F.Mask F.Paste))
  (pad E11 smd circle (at 0 -3) (size 0.23 0.23) (property pad_prop_bga) (layers F.Cu F.Mask F.Paste))
  (pad E12 smd circle (at 0.5 -3) (size 0.23 0.23) (property pad_prop_bga) (layers F.Cu F.Mask F.Paste))
  (pad E13 smd circle (at 1 -3) (size 0.23 0.23) (property pad_prop_bga) (layers F.Cu F.Mask F.Paste))
  (pad E14 smd circle (at 1.5 -3) (size 0.23 0.23) (property pad_prop_bga) (layers F.Cu F.Mask F.Paste))
  (pad E15 smd circle (at 2 -3) (size 0.23 0.23) (property pad_prop_bga) (layers F.Cu F.Mask F.Paste))
  (pad E16 smd circle (at 2.5 -3) (size 0.23 0.23) (property pad_prop_bga) (layers F.Cu F.Mask F.Paste))
  (pad E17 smd circle (at 3 -3) (size 0.23 0.23) (property pad_prop_bga) (layers F.Cu F.Mask F.Paste))
  (pad E19 smd circle (at 4 -3) (size 0.23 0.23) (property pad_prop_bga) (layers F.Cu F.Mask F.Paste))
  (pad E20 smd circle (at 4.5 -3) (size 0.23 0.23) (property pad_prop_bga) (layers F.Cu F.Mask F.Paste))
  (pad F1 smd circle (at -5 -2.5) (size 0.23 0.23) (property pad_prop_bga) (layers F.Cu F.Mask F.Paste))
  (pad F2 smd circle (at -4.5 -2.5) (size 0.23 0.23) (property pad_prop_bga) (layers F.Cu F.Mask F.Paste))
  (pad F3 smd circle (at -4 -2.5) (size 0.23 0.23) (property pad_prop_bga) (layers F.Cu F.Mask F.Paste))
  (pad F4 smd circle (at -3.5 -2.5) (size 0.23 0.23) (property pad_prop_bga) (layers F.Cu F.Mask F.Paste))
  (pad F5 smd circle (at -3 -2.5) (size 0.23 0.23) (property pad_prop_bga) (layers F.Cu F.Mask F.Paste))
  (pad F17 smd circle (at 3 -2.5) (size 0.23 0.23) (property pad_prop_bga) (layers F.Cu F.Mask F.Paste))
  (pad F18 smd circle (at 3.5 -2.5) (size 0.23 0.23) (property pad_prop_bga) (layers F.Cu F.Mask F.Paste))
  (pad F19 smd circle (at 4 -2.5) (size 0.23 0.23) (property pad_prop_bga) (layers F.Cu F.Mask F.Paste))
  (pad F20 smd circle (at 4.5 -2.5) (size 0.23 0.23) (property pad_prop_bga) (layers F.Cu F.Mask F.Paste))
  (pad F21 smd circle (at 5 -2.5) (size 0.23 0.23) (property pad_prop_bga) (layers F.Cu F.Mask F.Paste))
  (pad G1 smd circle (at -5 -2) (size 0.23 0.23) (property pad_prop_bga) (layers F.Cu F.Mask F.Paste))
  (pad G2 smd circle (at -4.5 -2) (size 0.23 0.23) (property pad_prop_bga) (layers F.Cu F.Mask F.Paste))
  (pad G3 smd circle (at -4 -2) (size 0.23 0.23) (property pad_prop_bga) (layers F.Cu F.Mask F.Paste))
  (pad G5 smd circle (at -3 -2) (size 0.23 0.23) (property pad_prop_bga) (layers F.Cu F.Mask F.Paste))
  (pad G7 smd circle (at -2 -2) (size 0.23 0.23) (property pad_prop_bga) (layers F.Cu F.Mask F.Paste))
  (pad G8 smd circle (at -1.5 -2) (size 0.23 0.23) (property pad_prop_bga) (layers F.Cu F.Mask F.Paste))
  (pad G9 smd circle (at -1 -2) (size 0.23 0.23) (property pad_prop_bga) (layers F.Cu F.Mask F.Paste))
  (pad G10 smd circle (at -0.5 -2) (size 0.23 0.23) (property pad_prop_bga) (layers F.Cu F.Mask F.Paste))
  (pad G11 smd circle (at 0 -2) (size 0.23 0.23) (property pad_prop_bga) (layers F.Cu F.Mask F.Paste))
  (pad G12 smd circle (at 0.5 -2) (size 0.23 0.23) (property pad_prop_bga) (layers F.Cu F.Mask F.Paste))
  (pad G13 smd circle (at 1 -2) (size 0.23 0.23) (property pad_prop_bga) (layers F.Cu F.Mask F.Paste))
  (pad G14 smd circle (at 1.5 -2) (size 0.23 0.23) (property pad_prop_bga) (layers F.Cu F.Mask F.Paste))
  (pad G15 smd circle (at 2 -2) (size 0.23 0.23) (property pad_prop_bga) (layers F.Cu F.Mask F.Paste))
  (pad G17 smd circle (at 3 -2) (size 0.23 0.23) (property pad_prop_bga) (layers F.Cu F.Mask F.Paste))
  (pad G19 smd circle (at 4 -2) (size 0.23 0.23) (property pad_prop_bga) (layers F.Cu F.Mask F.Paste))
  (pad G20 smd circle (at 4.5 -2) (size 0.23 0.23) (property pad_prop_bga) (layers F.Cu F.Mask F.Paste))
  (pad G21 smd circle (at 5 -2) (size 0.23 0.23) (property pad_prop_bga) (layers F.Cu F.Mask F.Paste))
  (pad H2 smd circle (at -4.5 -1.5) (size 0.23 0.23) (property pad_prop_bga) (layers F.Cu F.Mask F.Paste))
  (pad H3 smd circle (at -4 -1.5) (size 0.23 0.23) (property pad_prop_bga) (layers F.Cu F.Mask F.Paste))
  (pad H4 smd circle (at -3.5 -1.5) (size 0.23 0.23) (property pad_prop_bga) (layers F.Cu F.Mask F.Paste))
  (pad H5 smd circle (at -3 -1.5) (size 0.23 0.23) (property pad_prop_bga) (layers F.Cu F.Mask F.Paste))
  (pad H7 smd circle (at -2 -1.5) (size 0.23 0.23) (property pad_prop_bga) (layers F.Cu F.Mask F.Paste))
  (pad H15 smd circle (at 2 -1.5) (size 0.23 0.23) (property pad_prop_bga) (layers F.Cu F.Mask F.Paste))
  (pad H17 smd circle (at 3 -1.5) (size 0.23 0.23) (property pad_prop_bga) (layers F.Cu F.Mask F.Paste))
  (pad H18 smd circle (at 3.5 -1.5) (size 0.23 0.23) (property pad_prop_bga) (layers F.Cu F.Mask F.Paste))
  (pad H19 smd circle (at 4 -1.5) (size 0.23 0.23) (property pad_prop_bga) (layers F.Cu F.Mask F.Paste))
  (pad H20 smd circle (at 4.5 -1.5) (size 0.23 0.23) (property pad_prop_bga) (layers F.Cu F.Mask F.Paste))
  (pad J1 smd circle (at -5 -1) (size 0.23 0.23) (property pad_prop_bga) (layers F.Cu F.Mask F.Paste))
  (pad J2 smd circle (at -4.5 -1) (size 0.23 0.23) (property pad_prop_bga) (layers F.Cu F.Mask F.Paste))
  (pad J3 smd circle (at -4 -1) (size 0.23 0.23) (property pad_prop_bga) (layers F.Cu F.Mask F.Paste))
  (pad J5 smd circle (at -3 -1) (size 0.23 0.23) (property pad_prop_bga) (layers F.Cu F.Mask F.Paste))
  (pad J7 smd circle (at -2 -1) (size 0.23 0.23) (property pad_prop_bga) (layers F.Cu F.Mask F.Paste))
  (pad J9 smd circle (at -1 -1) (size 0.23 0.23) (property pad_prop_bga) (layers F.Cu F.Mask F.Paste))
  (pad J10 smd circle (at -0.5 -1) (size 0.23 0.23) (property pad_prop_bga) (layers F.Cu F.Mask F.Paste))
  (pad J11 smd circle (at 0 -1) (size 0.23 0.23) (property pad_prop_bga) (layers F.Cu F.Mask F.Paste))
  (pad J12 smd circle (at 0.5 -1) (size 0.23 0.23) (property pad_prop_bga) (layers F.Cu F.Mask F.Paste))
  (pad J13 smd circle (at 1 -1) (size 0.23 0.23) (property pad_prop_bga) (layers F.Cu F.Mask F.Paste))
  (pad J15 smd circle (at 2 -1) (size 0.23 0.23) (property pad_prop_bga) (layers F.Cu F.Mask F.Paste))
  (pad J17 smd circle (at 3 -1) (size 0.23 0.23) (property pad_prop_bga) (layers F.Cu F.Mask F.Paste))
  (pad J19 smd circle (at 4 -1) (size 0.23 0.23) (property pad_prop_bga) (layers F.Cu F.Mask F.Paste))
  (pad J20 smd circle (at 4.5 -1) (size 0.23 0.23) (property pad_prop_bga) (layers F.Cu F.Mask F.Paste))
  (pad J21 smd circle (at 5 -1) (size 0.23 0.23) (property pad_prop_bga) (layers F.Cu F.Mask F.Paste))
  (pad K1 smd circle (at -5 -0.5) (size 0.23 0.23) (property pad_prop_bga) (layers F.Cu F.Mask F.Paste))
  (pad K2 smd circle (at -4.5 -0.5) (size 0.23 0.23) (property pad_prop_bga) (layers F.Cu F.Mask F.Paste))
  (pad K3 smd circle (at -4 -0.5) (size 0.23 0.23) (property pad_prop_bga) (layers F.Cu F.Mask F.Paste))
  (pad K5 smd circle (at -3 -0.5) (size 0.23 0.23) (property pad_prop_bga) (layers F.Cu F.Mask F.Paste))
  (pad K7 smd circle (at -2 -0.5) (size 0.23 0.23) (property pad_prop_bga) (layers F.Cu F.Mask F.Paste))
  (pad K9 smd circle (at -1 -0.5) (size 0.23 0.23) (property pad_prop_bga) (layers F.Cu F.Mask F.Paste))
  (pad K10 smd circle (at -0.5 -0.5) (size 0.23 0.23) (property pad_prop_bga) (layers F.Cu F.Mask F.Paste))
  (pad K11 smd circle (at 0 -0.5) (size 0.23 0.23) (property pad_prop_bga) (layers F.Cu F.Mask F.Paste))
  (pad K12 smd circle (at 0.5 -0.5) (size 0.23 0.23) (property pad_prop_bga) (layers F.Cu F.Mask F.Paste))
  (pad K13 smd circle (at 1 -0.5) (size 0.23 0.23) (property pad_prop_bga) (layers F.Cu F.Mask F.Paste))
  (pad K15 smd circle (at 2 -0.5) (size 0.23 0.23) (property pad_prop_bga) (layers F.Cu F.Mask F.Paste))
  (pad K17 smd circle (at 3 -0.5) (size 0.23 0.23) (property pad_prop_bga) (layers F.Cu F.Mask F.Paste))
  (pad K19 smd circle (at 4 -0.5) (size 0.23 0.23) (property pad_prop_bga) (layers F.Cu F.Mask F.Paste))
  (pad K20 smd circle (at 4.5 -0.5) (size 0.23 0.23) (property pad_prop_bga) (layers F.Cu F.Mask F.Paste))
  (pad K21 smd circle (at 5 -0.5) (size 0.23 0.23) (property pad_prop_bga) (layers F.Cu F.Mask F.Paste))
  (pad L2 smd circle (at -4.5 0) (size 0.23 0.23) (property pad_prop_bga) (layers F.Cu F.Mask F.Paste))
  (pad L3 smd circle (at -4 0) (size 0.23 0.23) (property pad_prop_bga) (layers F.Cu F.Mask F.Paste))
  (pad L4 smd circle (at -3.5 0) (size 0.23 0.23) (property pad_prop_bga) (layers F.Cu F.Mask F.Paste))
  (pad L5 smd circle (at -3 0) (size 0.23 0.23) (property pad_prop_bga) (layers F.Cu F.Mask F.Paste))
  (pad L7 smd circle (at -2 0) (size 0.23 0.23) (property pad_prop_bga) (layers F.Cu F.Mask F.Paste))
  (pad L9 smd circle (at -1 0) (size 0.23 0.23) (property pad_prop_bga) (layers F.Cu F.Mask F.Paste))
  (pad L10 smd circle (at -0.5 0) (size 0.23 0.23) (property pad_prop_bga) (layers F.Cu F.Mask F.Paste))
  (pad L12 smd circle (at 0.5 0) (size 0.23 0.23) (property pad_prop_bga) (layers F.Cu F.Mask F.Paste))
  (pad L13 smd circle (at 1 0) (size 0.23 0.23) (property pad_prop_bga) (layers F.Cu F.Mask F.Paste))
  (pad L15 smd circle (at 2 0) (size 0.23 0.23) (property pad_prop_bga) (layers F.Cu F.Mask F.Paste))
  (pad L17 smd circle (at 3 0) (size 0.23 0.23) (property pad_prop_bga) (layers F.Cu F.Mask F.Paste))
  (pad L18 smd circle (at 3.5 0) (size 0.23 0.23) (property pad_prop_bga) (layers F.Cu F.Mask F.Paste))
  (pad L19 smd circle (at 4 0) (size 0.23 0.23) (property pad_prop_bga) (layers F.Cu F.Mask F.Paste))
  (pad L20 smd circle (at 4.5 0) (size 0.23 0.23) (property pad_prop_bga) (layers F.Cu F.Mask F.Paste))
  (pad M1 smd circle (at -5 0.5) (size 0.23 0.23) (property pad_prop_bga) (layers F.Cu F.Mask F.Paste))
  (pad M2 smd circle (at -4.5 0.5) (size 0.23 0.23) (property pad_prop_bga) (layers F.Cu F.Mask F.Paste))
  (pad M3 smd circle (at -4 0.5) (size 0.23 0.23) (property pad_prop_bga) (layers F.Cu F.Mask F.Paste))
  (pad M5 smd circle (at -3 0.5) (size 0.23 0.23) (property pad_prop_bga) (layers F.Cu F.Mask F.Paste))
  (pad M7 smd circle (at -2 0.5) (size 0.23 0.23) (property pad_prop_bga) (layers F.Cu F.Mask F.Paste))
  (pad M9 smd circle (at -1 0.5) (size 0.23 0.23) (property pad_prop_bga) (layers F.Cu F.Mask F.Paste))
  (pad M10 smd circle (at -0.5 0.5) (size 0.23 0.23) (property pad_prop_bga) (layers F.Cu F.Mask F.Paste))
  (pad M11 smd circle (at 0 0.5) (size 0.23 0.23) (property pad_prop_bga) (layers F.Cu F.Mask F.Paste))
  (pad M12 smd circle (at 0.5 0.5) (size 0.23 0.23) (property pad_prop_bga) (layers F.Cu F.Mask F.Paste))
  (pad M13 smd circle (at 1 0.5) (size 0.23 0.23) (property pad_prop_bga) (layers F.Cu F.Mask F.Paste))
  (pad M15 smd circle (at 2 0.5) (size 0.23 0.23) (property pad_prop_bga) (layers F.Cu F.Mask F.Paste))
  (pad M17 smd circle (at 3 0.5) (size 0.23 0.23) (property pad_prop_bga) (layers F.Cu F.Mask F.Paste))
  (pad M19 smd circle (at 4 0.5) (size 0.23 0.23) (property pad_prop_bga) (layers F.Cu F.Mask F.Paste))
  (pad M20 smd circle (at 4.5 0.5) (size 0.23 0.23) (property pad_prop_bga) (layers F.Cu F.Mask F.Paste))
  (pad M21 smd circle (at 5 0.5) (size 0.23 0.23) (property pad_prop_bga) (layers F.Cu F.Mask F.Paste))
  (pad N1 smd circle (at -5 1) (size 0.23 0.23) (property pad_prop_bga) (layers F.Cu F.Mask F.Paste))
  (pad N2 smd circle (at -4.5 1) (size 0.23 0.23) (property pad_prop_bga) (layers F.Cu F.Mask F.Paste))
  (pad N3 smd circle (at -4 1) (size 0.23 0.23) (property pad_prop_bga) (layers F.Cu F.Mask F.Paste))
  (pad N5 smd circle (at -3 1) (size 0.23 0.23) (property pad_prop_bga) (layers F.Cu F.Mask F.Paste))
  (pad N7 smd circle (at -2 1) (size 0.23 0.23) (property pad_prop_bga) (layers F.Cu F.Mask F.Paste))
  (pad N9 smd circle (at -1 1) (size 0.23 0.23) (property pad_prop_bga) (layers F.Cu F.Mask F.Paste))
  (pad N10 smd circle (at -0.5 1) (size 0.23 0.23) (property pad_prop_bga) (layers F.Cu F.Mask F.Paste))
  (pad N11 smd circle (at 0 1) (size 0.23 0.23) (property pad_prop_bga) (layers F.Cu F.Mask F.Paste))
  (pad N12 smd circle (at 0.5 1) (size 0.23 0.23) (property pad_prop_bga) (layers F.Cu F.Mask F.Paste))
  (pad N13 smd circle (at 1 1) (size 0.23 0.23) (property pad_prop_bga) (layers F.Cu F.Mask F.Paste))
  (pad N15 smd circle (at 2 1) (size 0.23 0.23) (property pad_prop_bga) (layers F.Cu F.Mask F.Paste))
  (pad N17 smd circle (at 3 1) (size 0.23 0.23) (property pad_prop_bga) (layers F.Cu F.Mask F.Paste))
  (pad N19 smd circle (at 4 1) (size 0.23 0.23) (property pad_prop_bga) (layers F.Cu F.Mask F.Paste))
  (pad N20 smd circle (at 4.5 1) (size 0.23 0.23) (property pad_prop_bga) (layers F.Cu F.Mask F.Paste))
  (pad N21 smd circle (at 5 1) (size 0.23 0.23) (property pad_prop_bga) (layers F.Cu F.Mask F.Paste))
  (pad P2 smd circle (at -4.5 1.5) (size 0.23 0.23) (property pad_prop_bga) (layers F.Cu F.Mask F.Paste))
  (pad P3 smd circle (at -4 1.5) (size 0.23 0.23) (property pad_prop_bga) (layers F.Cu F.Mask F.Paste))
  (pad P4 smd circle (at -3.5 1.5) (size 0.23 0.23) (property pad_prop_bga) (layers F.Cu F.Mask F.Paste))
  (pad P5 smd circle (at -3 1.5) (size 0.23 0.23) (property pad_prop_bga) (layers F.Cu F.Mask F.Paste))
  (pad P7 smd circle (at -2 1.5) (size 0.23 0.23) (property pad_prop_bga) (layers F.Cu F.Mask F.Paste))
  (pad P15 smd circle (at 2 1.5) (size 0.23 0.23) (property pad_prop_bga) (layers F.Cu F.Mask F.Paste))
  (pad P17 smd circle (at 3 1.5) (size 0.23 0.23) (property pad_prop_bga) (layers F.Cu F.Mask F.Paste))
  (pad P18 smd circle (at 3.5 1.5) (size 0.23 0.23) (property pad_prop_bga) (layers F.Cu F.Mask F.Paste))
  (pad P19 smd circle (at 4 1.5) (size 0.23 0.23) (property pad_prop_bga) (layers F.Cu F.Mask F.Paste))
  (pad P20 smd circle (at 4.5 1.5) (size 0.23 0.23) (property pad_prop_bga) (layers F.Cu F.Mask F.Paste))
  (pad R1 smd circle (at -5 2) (size 0.23 0.23) (property pad_prop_bga) (layers F.Cu F.Mask F.Paste))
  (pad R2 smd circle (at -4.5 2) (size 0.23 0.23) (property pad_prop_bga) (layers F.Cu F.Mask F.Paste))
  (pad R3 smd circle (at -4 2) (size 0.23 0.23) (property pad_prop_bga) (layers F.Cu F.Mask F.Paste))
  (pad R5 smd circle (at -3 2) (size 0.23 0.23) (property pad_prop_bga) (layers F.Cu F.Mask F.Paste))
  (pad R7 smd circle (at -2 2) (size 0.23 0.23) (property pad_prop_bga) (layers F.Cu F.Mask F.Paste))
  (pad R8 smd circle (at -1.5 2) (size 0.23 0.23) (property pad_prop_bga) (layers F.Cu F.Mask F.Paste))
  (pad R9 smd circle (at -1 2) (size 0.23 0.23) (property pad_prop_bga) (layers F.Cu F.Mask F.Paste))
  (pad R10 smd circle (at -0.5 2) (size 0.23 0.23) (property pad_prop_bga) (layers F.Cu F.Mask F.Paste))
  (pad R11 smd circle (at 0 2) (size 0.23 0.23) (property pad_prop_bga) (layers F.Cu F.Mask F.Paste))
  (pad R12 smd circle (at 0.5 2) (size 0.23 0.23) (property pad_prop_bga) (layers F.Cu F.Mask F.Paste))
  (pad R13 smd circle (at 1 2) (size 0.23 0.23) (property pad_prop_bga) (layers F.Cu F.Mask F.Paste))
  (pad R14 smd circle (at 1.5 2) (size 0.23 0.23) (property pad_prop_bga) (layers F.Cu F.Mask F.Paste))
  (pad R15 smd circle (at 2 2) (size 0.23 0.23) (property pad_prop_bga) (layers F.Cu F.Mask F.Paste))
  (pad R17 smd circle (at 3 2) (size 0.23 0.23) (property pad_prop_bga) (layers F.Cu F.Mask F.Paste))
  (pad R19 smd circle (at 4 2) (size 0.23 0.23) (property pad_prop_bga) (layers F.Cu F.Mask F.Paste))
  (pad R20 smd circle (at 4.5 2) (size 0.23 0.23) (property pad_prop_bga) (layers F.Cu F.Mask F.Paste))
  (pad R21 smd circle (at 5 2) (size 0.23 0.23) (property pad_prop_bga) (layers F.Cu F.Mask F.Paste))
  (pad T1 smd circle (at -5 2.5) (size 0.23 0.23) (property pad_prop_bga) (layers F.Cu F.Mask F.Paste))
  (pad T2 smd circle (at -4.5 2.5) (size 0.23 0.23) (property pad_prop_bga) (layers F.Cu F.Mask F.Paste))
  (pad T3 smd circle (at -4 2.5) (size 0.23 0.23) (property pad_prop_bga) (layers F.Cu F.Mask F.Paste))
  (pad T4 smd circle (at -3.5 2.5) (size 0.23 0.23) (property pad_prop_bga) (layers F.Cu F.Mask F.Paste))
  (pad T5 smd circle (at -3 2.5) (size 0.23 0.23) (property pad_prop_bga) (layers F.Cu F.Mask F.Paste))
  (pad T17 smd circle (at 3 2.5) (size 0.23 0.23) (property pad_prop_bga) (layers F.Cu F.Mask F.Paste))
  (pad T18 smd circle (at 3.5 2.5) (size 0.23 0.23) (property pad_prop_bga) (layers F.Cu F.Mask F.Paste))
  (pad T19 smd circle (at 4 2.5) (size 0.23 0.23) (property pad_prop_bga) (layers F.Cu F.Mask F.Paste))
  (pad T20 smd circle (at 4.5 2.5) (size 0.23 0.23) (property pad_prop_bga) (layers F.Cu F.Mask F.Paste))
  (pad T21 smd circle (at 5 2.5) (size 0.23 0.23) (property pad_prop_bga) (layers F.Cu F.Mask F.Paste))
  (pad U2 smd circle (at -4.5 3) (size 0.23 0.23) (property pad_prop_bga) (layers F.Cu F.Mask F.Paste))
  (pad U3 smd circle (at -4 3) (size 0.23 0.23) (property pad_prop_bga) (layers F.Cu F.Mask F.Paste))
  (pad U5 smd circle (at -3 3) (size 0.23 0.23) (property pad_prop_bga) (layers F.Cu F.Mask F.Paste))
  (pad U6 smd circle (at -2.5 3) (size 0.23 0.23) (property pad_prop_bga) (layers F.Cu F.Mask F.Paste))
  (pad U7 smd circle (at -2 3) (size 0.23 0.23) (property pad_prop_bga) (layers F.Cu F.Mask F.Paste))
  (pad U8 smd circle (at -1.5 3) (size 0.23 0.23) (property pad_prop_bga) (layers F.Cu F.Mask F.Paste))
  (pad U9 smd circle (at -1 3) (size 0.23 0.23) (property pad_prop_bga) (layers F.Cu F.Mask F.Paste))
  (pad U10 smd circle (at -0.5 3) (size 0.23 0.23) (property pad_prop_bga) (layers F.Cu F.Mask F.Paste))
  (pad U11 smd circle (at 0 3) (size 0.23 0.23) (property pad_prop_bga) (layers F.Cu F.Mask F.Paste))
  (pad U12 smd circle (at 0.5 3) (size 0.23 0.23) (property pad_prop_bga) (layers F.Cu F.Mask F.Paste))
  (pad U13 smd circle (at 1 3) (size 0.23 0.23) (property pad_prop_bga) (layers F.Cu F.Mask F.Paste))
  (pad U14 smd circle (at 1.5 3) (size 0.23 0.23) (property pad_prop_bga) (layers F.Cu F.Mask F.Paste))
  (pad U15 smd circle (at 2 3) (size 0.23 0.23) (property pad_prop_bga) (layers F.Cu F.Mask F.Paste))
  (pad U16 smd circle (at 2.5 3) (size 0.23 0.23) (property pad_prop_bga) (layers F.Cu F.Mask F.Paste))
  (pad U17 smd circle (at 3 3) (size 0.23 0.23) (property pad_prop_bga) (layers F.Cu F.Mask F.Paste))
  (pad U19 smd circle (at 4 3) (size 0.23 0.23) (property pad_prop_bga) (layers F.Cu F.Mask F.Paste))
  (pad U20 smd circle (at 4.5 3) (size 0.23 0.23) (property pad_prop_bga) (layers F.Cu F.Mask F.Paste))
  (pad V1 smd circle (at -5 3.5) (size 0.23 0.23) (property pad_prop_bga) (layers F.Cu F.Mask F.Paste))
  (pad V2 smd circle (at -4.5 3.5) (size 0.23 0.23) (property pad_prop_bga) (layers F.Cu F.Mask F.Paste))
  (pad V3 smd circle (at -4 3.5) (size 0.23 0.23) (property pad_prop_bga) (layers F.Cu F.Mask F.Paste))
  (pad V6 smd circle (at -2.5 3.5) (size 0.23 0.23) (property pad_prop_bga) (layers F.Cu F.Mask F.Paste))
  (pad V8 smd circle (at -1.5 3.5) (size 0.23 0.23) (property pad_prop_bga) (layers F.Cu F.Mask F.Paste))
  (pad V11 smd circle (at 0 3.5) (size 0.23 0.23) (property pad_prop_bga) (layers F.Cu F.Mask F.Paste))
  (pad V14 smd circle (at 1.5 3.5) (size 0.23 0.23) (property pad_prop_bga) (layers F.Cu F.Mask F.Paste))
  (pad V16 smd circle (at 2.5 3.5) (size 0.23 0.23) (property pad_prop_bga) (layers F.Cu F.Mask F.Paste))
  (pad V19 smd circle (at 4 3.5) (size 0.23 0.23) (property pad_prop_bga) (layers F.Cu F.Mask F.Paste))
  (pad V20 smd circle (at 4.5 3.5) (size 0.23 0.23) (property pad_prop_bga) (layers F.Cu F.Mask F.Paste))
  (pad V21 smd circle (at 5 3.5) (size 0.23 0.23) (property pad_prop_bga) (layers F.Cu F.Mask F.Paste))
  (pad W1 smd circle (at -5 4) (size 0.23 0.23) (property pad_prop_bga) (layers F.Cu F.Mask F.Paste))
  (pad W2 smd circle (at -4.5 4) (size 0.23 0.23) (property pad_prop_bga) (layers F.Cu F.Mask F.Paste))
  (pad W3 smd circle (at -4 4) (size 0.23 0.23) (property pad_prop_bga) (layers F.Cu F.Mask F.Paste))
  (pad W4 smd circle (at -3.5 4) (size 0.23 0.23) (property pad_prop_bga) (layers F.Cu F.Mask F.Paste))
  (pad W5 smd circle (at -3 4) (size 0.23 0.23) (property pad_prop_bga) (layers F.Cu F.Mask F.Paste))
  (pad W6 smd circle (at -2.5 4) (size 0.23 0.23) (property pad_prop_bga) (layers F.Cu F.Mask F.Paste))
  (pad W7 smd circle (at -2 4) (size 0.23 0.23) (property pad_prop_bga) (layers F.Cu F.Mask F.Paste))
  (pad W8 smd circle (at -1.5 4) (size 0.23 0.23) (property pad_prop_bga) (layers F.Cu F.Mask F.Paste))
  (pad W9 smd circle (at -1 4) (size 0.23 0.23) (property pad_prop_bga) (layers F.Cu F.Mask F.Paste))
  (pad W10 smd circle (at -0.5 4) (size 0.23 0.23) (property pad_prop_bga) (layers F.Cu F.Mask F.Paste))
  (pad W11 smd circle (at 0 4) (size 0.23 0.23) (property pad_prop_bga) (layers F.Cu F.Mask F.Paste))
  (pad W12 smd circle (at 0.5 4) (size 0.23 0.23) (property pad_prop_bga) (layers F.Cu F.Mask F.Paste))
  (pad W13 smd circle (at 1 4) (size 0.23 0.23) (property pad_prop_bga) (layers F.Cu F.Mask F.Paste))
  (pad W14 smd circle (at 1.5 4) (size 0.23 0.23) (property pad_prop_bga) (layers F.Cu F.Mask F.Paste))
  (pad W15 smd circle (at 2 4) (size 0.23 0.23) (property pad_prop_bga) (layers F.Cu F.Mask F.Paste))
  (pad W16 smd circle (at 2.5 4) (size 0.23 0.23) (property pad_prop_bga) (layers F.Cu F.Mask F.Paste))
  (pad W17 smd circle (at 3 4) (size 0.23 0.23) (property pad_prop_bga) (layers F.Cu F.Mask F.Paste))
  (pad W18 smd circle (at 3.5 4) (size 0.23 0.23) (property pad_prop_bga) (layers F.Cu F.Mask F.Paste))
  (pad W19 smd circle (at 4 4) (size 0.23 0.23) (property pad_prop_bga) (layers F.Cu F.Mask F.Paste))
  (pad W20 smd circle (at 4.5 4) (size 0.23 0.23) (property pad_prop_bga) (layers F.Cu F.Mask F.Paste))
  (pad W21 smd circle (at 5 4) (size 0.23 0.23) (property pad_prop_bga) (layers F.Cu F.Mask F.Paste))
  (pad Y1 smd circle (at -5 4.5) (size 0.23 0.23) (property pad_prop_bga) (layers F.Cu F.Mask F.Paste))
  (pad Y2 smd circle (at -4.5 4.5) (size 0.23 0.23) (property pad_prop_bga) (layers F.Cu F.Mask F.Paste))
  (pad Y3 smd circle (at -4 4.5) (size 0.23 0.23) (property pad_prop_bga) (layers F.Cu F.Mask F.Paste))
  (pad Y4 smd circle (at -3.5 4.5) (size 0.23 0.23) (property pad_prop_bga) (layers F.Cu F.Mask F.Paste))
  (pad Y5 smd circle (at -3 4.5) (size 0.23 0.23) (property pad_prop_bga) (layers F.Cu F.Mask F.Paste))
  (pad Y6 smd circle (at -2.5 4.5) (size 0.23 0.23) (property pad_prop_bga) (layers F.Cu F.Mask F.Paste))
  (pad Y7 smd circle (at -2 4.5) (size 0.23 0.23) (property pad_prop_bga) (layers F.Cu F.Mask F.Paste))
  (pad Y8 smd circle (at -1.5 4.5) (size 0.23 0.23) (property pad_prop_bga) (layers F.Cu F.Mask F.Paste))
  (pad Y9 smd circle (at -1 4.5) (size 0.23 0.23) (property pad_prop_bga) (layers F.Cu F.Mask F.Paste))
  (pad Y10 smd circle (at -0.5 4.5) (size 0.23 0.23) (property pad_prop_bga) (layers F.Cu F.Mask F.Paste))
  (pad Y11 smd circle (at 0 4.5) (size 0.23 0.23) (property pad_prop_bga) (layers F.Cu F.Mask F.Paste))
  (pad Y12 smd circle (at 0.5 4.5) (size 0.23 0.23) (property pad_prop_bga) (layers F.Cu F.Mask F.Paste))
  (pad Y13 smd circle (at 1 4.5) (size 0.23 0.23) (property pad_prop_bga) (layers F.Cu F.Mask F.Paste))
  (pad Y14 smd circle (at 1.5 4.5) (size 0.23 0.23) (property pad_prop_bga) (layers F.Cu F.Mask F.Paste))
  (pad Y15 smd circle (at 2 4.5) (size 0.23 0.23) (property pad_prop_bga) (layers F.Cu F.Mask F.Paste))
  (pad Y16 smd circle (at 2.5 4.5) (size 0.23 0.23) (property pad_prop_bga) (layers F.Cu F.Mask F.Paste))
  (pad Y17 smd circle (at 3 4.5) (size 0.23 0.23) (property pad_prop_bga) (layers F.Cu F.Mask F.Paste))
  (pad Y18 smd circle (at 3.5 4.5) (size 0.23 0.23) (property pad_prop_bga) (layers F.Cu F.Mask F.Paste))
  (pad Y19 smd circle (at 4 4.5) (size 0.23 0.23) (property pad_prop_bga) (layers F.Cu F.Mask F.Paste))
  (pad Y20 smd circle (at 4.5 4.5) (size 0.23 0.23) (property pad_prop_bga) (layers F.Cu F.Mask F.Paste))
  (pad Y21 smd circle (at 5 4.5) (size 0.23 0.23) (property pad_prop_bga) (layers F.Cu F.Mask F.Paste))
  (pad AA1 smd circle (at -5 5) (size 0.23 0.23) (property pad_prop_bga) (layers F.Cu F.Mask F.Paste))
  (pad AA2 smd circle (at -4.5 5) (size 0.23 0.23) (property pad_prop_bga) (layers F.Cu F.Mask F.Paste))
  (pad AA3 smd circle (at -4 5) (size 0.23 0.23) (property pad_prop_bga) (layers F.Cu F.Mask F.Paste))
  (pad AA4 smd circle (at -3.5 5) (size 0.23 0.23) (property pad_prop_bga) (layers F.Cu F.Mask F.Paste))
  (pad AA6 smd circle (at -2.5 5) (size 0.23 0.23) (property pad_prop_bga) (layers F.Cu F.Mask F.Paste))
  (pad AA7 smd circle (at -2 5) (size 0.23 0.23) (property pad_prop_bga) (layers F.Cu F.Mask F.Paste))
  (pad AA9 smd circle (at -1 5) (size 0.23 0.23) (property pad_prop_bga) (layers F.Cu F.Mask F.Paste))
  (pad AA10 smd circle (at -0.5 5) (size 0.23 0.23) (property pad_prop_bga) (layers F.Cu F.Mask F.Paste))
  (pad AA12 smd circle (at 0.5 5) (size 0.23 0.23) (property pad_prop_bga) (layers F.Cu F.Mask F.Paste))
  (pad AA13 smd circle (at 1 5) (size 0.23 0.23) (property pad_prop_bga) (layers F.Cu F.Mask F.Paste))
  (pad AA15 smd circle (at 2 5) (size 0.23 0.23) (property pad_prop_bga) (layers F.Cu F.Mask F.Paste))
  (pad AA16 smd circle (at 2.5 5) (size 0.23 0.23) (property pad_prop_bga) (layers F.Cu F.Mask F.Paste))
  (pad AA18 smd circle (at 3.5 5) (size 0.23 0.23) (property pad_prop_bga) (layers F.Cu F.Mask F.Paste))
  (pad AA19 smd circle (at 4 5) (size 0.23 0.23) (property pad_prop_bga) (layers F.Cu F.Mask F.Paste))
  (pad AA20 smd circle (at 4.5 5) (size 0.23 0.23) (property pad_prop_bga) (layers F.Cu F.Mask F.Paste))
  (pad AA21 smd circle (at 5 5) (size 0.23 0.23) (property pad_prop_bga) (layers F.Cu F.Mask F.Paste))
  (fp_text user ${REFERENCE} (at 0 0) (layer F.Fab)
    (effects (font (size 1 1) (thickness 0.15)))
  )
  (model ${KICAD7_3DMODEL_DIR}/Package_BGA.3dshapes/ST_TFBGA-320_11x11mm_Layout21x21_P0.5mm.wrl
    (offset (xyz 0 0 0))
    (scale (xyz 1 1 1))
    (rotate (xyz 0 0 0))
  )
)
