(footprint ST_WLCSP-56_3.38x3.38mm_P0.4m_Stagger (version 20221018) (generator kicad-footprint-generator)
  (layer F.Cu)
  (descr "ST WLCSP-56, ST die ID 455, 3.38x3.38mm, 56 Ball, X-staggered 14x8 Layout, 0.4mm Pitch, https://www.st.com/resource/en/datasheet/stm32u535je.pdf")
  (tags "CSP 56 0.4")
  (attr smd)
  (solder_mask_margin 0.0375)
  (solder_paste_margin 0.0375)
  (fp_text reference REF** (at 0 -2.69) (layer F.SilkS)
    (effects (font (size 1 1) (thickness 0.15)))
  )
  (fp_text value ST_WLCSP-56_3.38x3.38mm_P0.4m_Stagger (at 0 2.69) (layer F.Fab)
    (effects (font (size 1 1) (thickness 0.15)))
  )
  (fp_line (start 1.69 1.69) (end -1.69 1.69)
    (stroke (width 0.1) (type solid)) (layer F.Fab))
  (fp_line (start -1.69 1.69) (end -1.69 -0.845)
    (stroke (width 0.1) (type solid)) (layer F.Fab))
  (fp_line (start -1.69 -0.845) (end -0.845 -1.69)
    (stroke (width 0.1) (type solid)) (layer F.Fab))
  (fp_line (start -0.845 -1.69) (end 1.69 -1.69)
    (stroke (width 0.1) (type solid)) (layer F.Fab))
  (fp_line (start 1.69 -1.69) (end 1.69 1.69)
    (stroke (width 0.1) (type solid)) (layer F.Fab))
  (fp_line (start -2.69 -2.69) (end -2.69 2.69)
    (stroke (width 0.05) (type solid)) (layer F.CrtYd))
  (fp_line (start -2.69 2.69) (end 2.69 2.69)
    (stroke (width 0.05) (type solid)) (layer F.CrtYd))
  (fp_line (start 2.69 2.69) (end 2.69 -2.69)
    (stroke (width 0.05) (type solid)) (layer F.CrtYd))
  (fp_line (start 2.69 -2.69) (end -2.69 -2.69)
    (stroke (width 0.05) (type solid)) (layer F.CrtYd))
  (fp_line (start -0.955 -1.8) (end 1.8 -1.8)
    (stroke (width 0.12) (type solid)) (layer F.SilkS))
  (fp_line (start 1.8 -1.8) (end 1.8 1.8)
    (stroke (width 0.12) (type solid)) (layer F.SilkS))
  (fp_line (start 1.8 1.8) (end -1.8 1.8)
    (stroke (width 0.12) (type solid)) (layer F.SilkS))
  (fp_line (start -1.8 1.8) (end -1.8 -0.955)
    (stroke (width 0.12) (type solid)) (layer F.SilkS))
  (pad A1 smd circle (at -1.3 -1.212436) (size 0.25 0.25) (property pad_prop_bga) (layers F.Cu F.Mask F.Paste))
  (pad A3 smd circle (at -0.9 -1.212436) (size 0.25 0.25) (property pad_prop_bga) (layers F.Cu F.Mask F.Paste))
  (pad A5 smd circle (at -0.5 -1.212436) (size 0.25 0.25) (property pad_prop_bga) (layers F.Cu F.Mask F.Paste))
  (pad A7 smd circle (at -0.1 -1.212436) (size 0.25 0.25) (property pad_prop_bga) (layers F.Cu F.Mask F.Paste))
  (pad A9 smd circle (at 0.3 -1.212436) (size 0.25 0.25) (property pad_prop_bga) (layers F.Cu F.Mask F.Paste))
  (pad A11 smd circle (at 0.7 -1.212436) (size 0.25 0.25) (property pad_prop_bga) (layers F.Cu F.Mask F.Paste))
  (pad A13 smd circle (at 1.1 -1.212436) (size 0.25 0.25) (property pad_prop_bga) (layers F.Cu F.Mask F.Paste))
  (pad B2 smd circle (at -1.1 -0.866025) (size 0.25 0.25) (property pad_prop_bga) (layers F.Cu F.Mask F.Paste))
  (pad B4 smd circle (at -0.7 -0.866025) (size 0.25 0.25) (property pad_prop_bga) (layers F.Cu F.Mask F.Paste))
  (pad B6 smd circle (at -0.3 -0.866025) (size 0.25 0.25) (property pad_prop_bga) (layers F.Cu F.Mask F.Paste))
  (pad B8 smd circle (at 0.1 -0.866025) (size 0.25 0.25) (property pad_prop_bga) (layers F.Cu F.Mask F.Paste))
  (pad B10 smd circle (at 0.5 -0.866025) (size 0.25 0.25) (property pad_prop_bga) (layers F.Cu F.Mask F.Paste))
  (pad B12 smd circle (at 0.9 -0.866025) (size 0.25 0.25) (property pad_prop_bga) (layers F.Cu F.Mask F.Paste))
  (pad B14 smd circle (at 1.3 -0.866025) (size 0.25 0.25) (property pad_prop_bga) (layers F.Cu F.Mask F.Paste))
  (pad C1 smd circle (at -1.3 -0.519615) (size 0.25 0.25) (property pad_prop_bga) (layers F.Cu F.Mask F.Paste))
  (pad C3 smd circle (at -0.9 -0.519615) (size 0.25 0.25) (property pad_prop_bga) (layers F.Cu F.Mask F.Paste))
  (pad C5 smd circle (at -0.5 -0.519615) (size 0.25 0.25) (property pad_prop_bga) (layers F.Cu F.Mask F.Paste))
  (pad C7 smd circle (at -0.1 -0.519615) (size 0.25 0.25) (property pad_prop_bga) (layers F.Cu F.Mask F.Paste))
  (pad C9 smd circle (at 0.3 -0.519615) (size 0.25 0.25) (property pad_prop_bga) (layers F.Cu F.Mask F.Paste))
  (pad C11 smd circle (at 0.7 -0.519615) (size 0.25 0.25) (property pad_prop_bga) (layers F.Cu F.Mask F.Paste))
  (pad C13 smd circle (at 1.1 -0.519615) (size 0.25 0.25) (property pad_prop_bga) (layers F.Cu F.Mask F.Paste))
  (pad D2 smd circle (at -1.1 -0.173205) (size 0.25 0.25) (property pad_prop_bga) (layers F.Cu F.Mask F.Paste))
  (pad D4 smd circle (at -0.7 -0.173205) (size 0.25 0.25) (property pad_prop_bga) (layers F.Cu F.Mask F.Paste))
  (pad D6 smd circle (at -0.3 -0.173205) (size 0.25 0.25) (property pad_prop_bga) (layers F.Cu F.Mask F.Paste))
  (pad D8 smd circle (at 0.1 -0.173205) (size 0.25 0.25) (property pad_prop_bga) (layers F.Cu F.Mask F.Paste))
  (pad D10 smd circle (at 0.5 -0.173205) (size 0.25 0.25) (property pad_prop_bga) (layers F.Cu F.Mask F.Paste))
  (pad D12 smd circle (at 0.9 -0.173205) (size 0.25 0.25) (property pad_prop_bga) (layers F.Cu F.Mask F.Paste))
  (pad D14 smd circle (at 1.3 -0.173205) (size 0.25 0.25) (property pad_prop_bga) (layers F.Cu F.Mask F.Paste))
  (pad E1 smd circle (at -1.3 0.173205) (size 0.25 0.25) (property pad_prop_bga) (layers F.Cu F.Mask F.Paste))
  (pad E3 smd circle (at -0.9 0.173205) (size 0.25 0.25) (property pad_prop_bga) (layers F.Cu F.Mask F.Paste))
  (pad E5 smd circle (at -0.5 0.173205) (size 0.25 0.25) (property pad_prop_bga) (layers F.Cu F.Mask F.Paste))
  (pad E7 smd circle (at -0.1 0.173205) (size 0.25 0.25) (property pad_prop_bga) (layers F.Cu F.Mask F.Paste))
  (pad E9 smd circle (at 0.3 0.173205) (size 0.25 0.25) (property pad_prop_bga) (layers F.Cu F.Mask F.Paste))
  (pad E11 smd circle (at 0.7 0.173205) (size 0.25 0.25) (property pad_prop_bga) (layers F.Cu F.Mask F.Paste))
  (pad E13 smd circle (at 1.1 0.173205) (size 0.25 0.25) (property pad_prop_bga) (layers F.Cu F.Mask F.Paste))
  (pad F2 smd circle (at -1.1 0.519615) (size 0.25 0.25) (property pad_prop_bga) (layers F.Cu F.Mask F.Paste))
  (pad F4 smd circle (at -0.7 0.519615) (size 0.25 0.25) (property pad_prop_bga) (layers F.Cu F.Mask F.Paste))
  (pad F6 smd circle (at -0.3 0.519615) (size 0.25 0.25) (property pad_prop_bga) (layers F.Cu F.Mask F.Paste))
  (pad F8 smd circle (at 0.1 0.519615) (size 0.25 0.25) (property pad_prop_bga) (layers F.Cu F.Mask F.Paste))
  (pad F10 smd circle (at 0.5 0.519615) (size 0.25 0.25) (property pad_prop_bga) (layers F.Cu F.Mask F.Paste))
  (pad F12 smd circle (at 0.9 0.519615) (size 0.25 0.25) (property pad_prop_bga) (layers F.Cu F.Mask F.Paste))
  (pad F14 smd circle (at 1.3 0.519615) (size 0.25 0.25) (property pad_prop_bga) (layers F.Cu F.Mask F.Paste))
  (pad G1 smd circle (at -1.3 0.866025) (size 0.25 0.25) (property pad_prop_bga) (layers F.Cu F.Mask F.Paste))
  (pad G3 smd circle (at -0.9 0.866025) (size 0.25 0.25) (property pad_prop_bga) (layers F.Cu F.Mask F.Paste))
  (pad G5 smd circle (at -0.5 0.866025) (size 0.25 0.25) (property pad_prop_bga) (layers F.Cu F.Mask F.Paste))
  (pad G7 smd circle (at -0.1 0.866025) (size 0.25 0.25) (property pad_prop_bga) (layers F.Cu F.Mask F.Paste))
  (pad G9 smd circle (at 0.3 0.866025) (size 0.25 0.25) (property pad_prop_bga) (layers F.Cu F.Mask F.Paste))
  (pad G11 smd circle (at 0.7 0.866025) (size 0.25 0.25) (property pad_prop_bga) (layers F.Cu F.Mask F.Paste))
  (pad G13 smd circle (at 1.1 0.866025) (size 0.25 0.25) (property pad_prop_bga) (layers F.Cu F.Mask F.Paste))
  (pad H2 smd circle (at -1.1 1.212436) (size 0.25 0.25) (property pad_prop_bga) (layers F.Cu F.Mask F.Paste))
  (pad H4 smd circle (at -0.7 1.212436) (size 0.25 0.25) (property pad_prop_bga) (layers F.Cu F.Mask F.Paste))
  (pad H6 smd circle (at -0.3 1.212436) (size 0.25 0.25) (property pad_prop_bga) (layers F.Cu F.Mask F.Paste))
  (pad H8 smd circle (at 0.1 1.212436) (size 0.25 0.25) (property pad_prop_bga) (layers F.Cu F.Mask F.Paste))
  (pad H10 smd circle (at 0.5 1.212436) (size 0.25 0.25) (property pad_prop_bga) (layers F.Cu F.Mask F.Paste))
  (pad H12 smd circle (at 0.9 1.212436) (size 0.25 0.25) (property pad_prop_bga) (layers F.Cu F.Mask F.Paste))
  (pad H14 smd circle (at 1.3 1.212436) (size 0.25 0.25) (property pad_prop_bga) (layers F.Cu F.Mask F.Paste))
  (fp_text user ${REFERENCE} (at 0 0) (layer F.Fab)
    (effects (font (size 0.79 0.79) (thickness 0.1185)))
  )
  (model ${KICAD7_3DMODEL_DIR}/Package_CSP.3dshapes/ST_WLCSP-56_3.38x3.38mm_P0.4m_Stagger.wrl
    (offset (xyz 0 0 0))
    (scale (xyz 1 1 1))
    (rotate (xyz 0 0 0))
  )
)
